=~=~=~=~=~=~=~=~=~=~=~= PuTTY log 2019.05.22 15:01:56 =~=~=~=~=~=~=~=~=~=~=~=
time (ms),Voltage (v),Current (mA),Power (mW),Duty cycle (percent)
10259,0.17,34.08,5.60,93.75
10415,0.17,34.05,5.60,93.12
10571,0.17,34.14,5.60,92.50
10727,0.17,34.10,5.64,91.87
10884,0.18,34.10,6.40,91.25
11039,0.19,34.13,6.40,90.62
11196,0.19,34.15,6.40,90.00
11352,0.20,34.16,6.40,89.37
11507,0.21,34.14,6.40,88.75
11664,0.21,34.18,6.48,88.12
11820,0.22,34.14,7.52,87.50
11976,0.22,34.12,8.00,86.87
12132,0.23,34.18,8.00,86.25
12289,0.24,34.11,8.00,85.62
12444,0.24,34.15,8.00,85.00
12601,0.25,34.10,8.00,84.37
12756,0.25,34.10,8.20,83.75
12913,0.26,34.10,8.76,83.12
13069,0.26,34.05,8.80,82.50
13225,0.27,33.99,8.80,81.87
13381,0.28,33.99,8.80,81.25
13538,0.28,34.00,8.80,80.62
13693,0.29,33.97,8.80,80.00
13850,0.29,34.02,9.68,79.37
14006,0.30,33.95,10.40,78.75
14162,0.30,33.94,10.40,78.12
14318,0.31,33.89,10.40,77.50
14475,0.32,33.87,10.40,76.87
14630,0.32,33.85,10.40,76.25
14787,0.33,33.83,10.88,75.62
14943,0.34,33.84,12.00,75.00
15099,0.35,33.86,12.00,74.37
15256,0.35,33.88,12.00,73.75
15412,0.36,33.88,12.00,73.12
15568,0.37,33.87,12.08,72.50
15724,0.37,33.86,12.80,71.87
15881,0.38,33.76,12.80,71.25
16036,0.39,33.80,12.80,70.62
16193,0.40,33.82,12.80,70.00
16349,0.41,33.84,12.96,69.37
16505,0.41,33.80,14.32,68.75
16662,0.42,33.69,14.40,68.12
16818,0.43,33.71,14.40,67.50
16974,0.44,33.88,14.40,66.87
17130,0.45,33.81,15.20,66.25
17287,0.46,33.87,16.00,65.62
17442,0.47,33.90,16.00,65.00
17599,0.48,33.93,16.04,64.37
17756,0.49,33.92,16.64,63.75
17911,0.50,33.94,16.80,63.13
18068,0.51,33.80,16.80,62.50
18224,0.52,33.85,16.80,61.88
18380,0.53,33.75,18.00,61.25
18536,0.54,33.79,18.40,60.63
18693,0.55,33.81,18.40,60.00
18848,0.56,33.86,18.96,59.38
19005,0.58,33.88,20.00,58.75
19161,0.59,33.86,20.00,58.13
19317,0.60,33.91,20.36,57.50
19473,0.61,33.81,20.76,56.88
19630,0.63,33.76,20.80,56.25
19785,0.64,33.79,21.04,55.63
19942,0.65,33.81,22.40,55.00
20098,0.67,33.67,22.40,54.38
20254,0.68,33.76,22.72,53.75
20410,0.70,33.80,23.12,53.13
20567,0.71,33.83,23.28,52.50
20722,0.73,33.75,24.48,51.88
20879,0.74,33.75,24.80,51.25
21035,0.76,33.79,25.12,50.63
21191,0.78,33.78,26.40,50.00
21347,0.79,33.76,26.52,49.38
21504,0.81,33.76,27.20,48.75
21659,0.83,33.86,27.36,48.13
21816,0.85,33.78,28.64,47.50
21971,0.87,33.79,29.12,46.88
22128,0.89,33.73,30.08,46.25
22284,0.91,33.78,30.48,45.63
22440,0.93,33.76,31.20,45.00
22596,0.95,33.77,31.44,44.38
22753,0.97,33.75,32.72,43.75
22908,0.99,33.85,34.08,43.13
23065,1.02,33.81,34.48,42.50
23221,1.04,33.75,35.16,41.88
23377,1.07,33.70,35.60,41.25
23533,1.09,33.72,36.88,40.63
23690,1.12,33.68,38.24,40.00
23845,1.15,33.79,38.88,39.38
24002,1.18,33.71,39.44,38.75
24158,1.21,33.63,40.64,38.13
24314,1.24,33.67,41.40,37.50
24470,1.27,33.71,42.96,36.88
24627,1.30,33.73,44.00,36.25
24782,1.34,33.72,45.08,35.63
24939,1.37,33.66,45.64,35.00
25095,1.41,33.67,47.04,34.38
25251,1.44,33.66,48.84,33.75
25407,1.48,33.66,49.64,33.13
25564,1.53,33.62,51.44,32.50
25719,1.57,33.57,52.96,31.87
25876,1.61,33.59,54.04,31.25
26032,1.66,33.63,55.64,30.62
26188,1.71,33.58,57.04,30.00
26344,1.76,33.52,58.96,29.37
26501,1.81,33.37,60.44,28.75
26656,1.87,33.55,62.64,28.12
26813,1.93,33.51,64.40,27.50
26969,1.99,33.49,66.80,26.87
27125,2.05,33.48,68.44,26.25
27281,2.12,33.26,70.04,25.62
27438,2.18,33.28,72.68,25.00
27593,2.26,33.17,74.60,24.37
27750,2.34,33.19,77.60,23.75
27906,2.42,33.41,80.72,23.12
28062,2.51,33.38,83.28,22.50
28218,2.60,33.48,86.68,21.87
28375,2.70,33.50,89.80,21.25
28530,2.80,33.33,93.44,20.62
28687,2.91,33.32,96.84,20.00
28843,3.03,33.25,101.00,19.37
28999,3.16,33.26,104.64,18.75
29156,3.29,33.19,109.32,18.12
29312,3.44,33.23,114.12,17.50
29468,3.60,33.18,119.28,16.87
29624,3.77,33.23,124.96,16.25
29780,3.95,33.16,130.60,15.63
29936,4.14,33.01,136.60,15.00
30093,4.35,32.72,142.52,14.38
30249,4.57,32.34,148.00,13.75
30405,4.77,31.78,151.68,13.13
30562,5.05,31.39,158.40,12.50
30717,5.38,31.49,169.32,11.88
30874,5.76,31.42,181.40,11.25
31030,6.20,31.37,194.16,10.63
31186,6.72,31.28,209.60,10.00
31343,7.34,31.35,229.84,9.38
31499,8.06,31.08,250.44,8.75
31655,8.98,30.96,278.32,8.13
31811,10.14,30.99,313.56,7.50
31968,10.78,28.26,304.12,6.88
32124,11.06,24.41,269.56,6.25
32280,11.25,20.47,230.80,5.63
32437,11.40,16.33,185.84,5.63
32592,17.56,0.79,13.72,5.63
32749,17.56,0.76,14.28,5.63
32905,17.56,0.80,15.24,5.63
33060,17.56,0.70,12.68,5.63
33217,17.56,0.74,12.92,5.63
33373,17.56,0.72,13.00,5.63
33529,17.56,0.76,13.32,5.63
33685,17.56,0.77,13.24,5.63
33841,17.56,0.79,13.52,5.63
33997,17.56,0.75,13.04,5.63
34153,17.56,0.81,13.76,5.63
34310,17.56,0.75,13.84,5.63
34465,17.56,0.74,13.64,5.63
34622,17.56,0.74,14.08,5.63
34778,17.56,0.74,13.08,5.63
34933,17.56,0.76,13.76,5.63
35090,17.56,0.76,13.40,5.63
35246,17.56,0.75,13.04,5.63
35402,17.56,0.78,13.76,5.63
35558,17.56,0.74,12.88,5.63
35714,17.56,0.76,13.04,5.63
35870,17.56,0.79,12.88,5.63
36026,17.56,0.75,13.96,5.63
36183,17.56,0.79,13.32,5.63
36338,17.56,0.74,12.52,5.63
36494,17.56,0.78,11.96,5.63
36651,17.56,0.83,13.76,5.63
36806,17.56,0.73,13.60,5.63
36963,17.56,0.70,13.64,5.63
37118,17.56,0.72,12.80,5.63
37274,17.56,0.78,13.40,5.63
37431,17.56,0.76,13.64,5.63
37586,17.56,0.71,12.32,5.63
37743,17.56,0.79,12.72,5.63
37899,17.56,0.73,12.88,5.63
38055,17.56,0.77,12.76,5.63
38211,17.56,0.79,12.76,5.63
38367,17.56,0.76,13.76,5.63
38523,17.56,0.73,13.76,5.63
38679,17.56,0.70,13.28,5.63
38836,17.56,0.74,13.16,5.63
38991,17.56,0.73,12.44,5.63
39147,17.56,0.75,13.36,5.63
39304,17.56,0.78,13.56,5.63
39459,17.56,0.77,13.68,5.63
39616,17.56,0.73,13.32,5.63
39772,17.56,0.79,13.00,5.63
39928,17.56,0.76,12.48,5.63
40084,17.56,0.73,13.52,5.63
40240,17.56,0.74,12.60,5.63
40396,17.55,0.79,12.20,5.63
40552,17.55,0.76,13.88,5.63
40708,17.55,0.71,13.36,5.63
40864,17.55,0.78,13.24,5.63
41020,17.55,0.83,14.32,5.63
41177,17.55,0.71,12.84,5.63
41332,17.55,0.69,14.44,5.63
41488,17.55,0.74,13.04,5.63
4